PWD /home/juan/repos/obrazki/spr
INPUT /usr/share/texmf-dist/web2c/texmf.cnf
INPUT /var/lib/texmf/web2c/pdftex/pdflatex.fmt
INPUT spr.tex
OUTPUT spr.log
INPUT /usr/share/texmf-dist/tex/latex/base/article.cls
INPUT /usr/share/texmf-dist/tex/latex/base/article.cls
INPUT /usr/share/texmf-dist/tex/latex/base/size12.clo
INPUT /usr/share/texmf-dist/tex/latex/base/size12.clo
INPUT /usr/share/texmf-dist/fonts/map/fontname/texfonts.map
INPUT /usr/share/texmf-dist/fonts/tfm/public/cm/cmr12.tfm
INPUT /usr/share/texmf-dist/tex/latex/polski/polski.sty
INPUT /usr/share/texmf-dist/tex/latex/polski/polski.sty
INPUT /usr/share/texmf-dist/tex/latex/polski/ot4cmr.fd
INPUT /usr/share/texmf-dist/tex/latex/base/ot4enc.def
INPUT /usr/share/texmf-dist/tex/latex/polski/ot4cmr.fd
INPUT /usr/share/texmf-dist/tex/latex/polski/ot4cmr.fd
INPUT /usr/share/texmf-dist/fonts/tfm/public/pl/plr12.tfm
INPUT /usr/share/texmf-dist/tex/latex/tools/verbatim.sty
INPUT /usr/share/texmf-dist/tex/latex/tools/verbatim.sty
INPUT /usr/share/texmf-dist/tex/latex/listings/listings.sty
INPUT /usr/share/texmf-dist/tex/latex/listings/listings.sty
INPUT /usr/share/texmf-dist/tex/latex/graphics/keyval.sty
INPUT /usr/share/texmf-dist/tex/latex/graphics/keyval.sty
INPUT /usr/share/texmf-dist/tex/latex/listings/lstmisc.sty
INPUT /usr/share/texmf-dist/tex/latex/listings/lstmisc.sty
INPUT /usr/share/texmf-dist/tex/latex/listings/listings.cfg
INPUT /usr/share/texmf-dist/tex/latex/listings/listings.cfg
INPUT /usr/share/texmf-dist/tex/latex/siunitx/siunitx.sty
INPUT /usr/share/texmf-dist/tex/latex/siunitx/siunitx.sty
INPUT /usr/share/texmf-dist/tex/latex/l3kernel/expl3.sty
INPUT /usr/share/texmf-dist/tex/latex/l3kernel/expl3.sty
INPUT /usr/share/texmf-dist/tex/latex/l3backend/l3backend-pdfmode.def
INPUT /usr/share/texmf-dist/tex/latex/l3backend/l3backend-pdfmode.def
INPUT /usr/share/texmf-dist/tex/latex/l3packages/xparse/xparse.sty
INPUT /usr/share/texmf-dist/tex/latex/l3packages/xparse/xparse.sty
INPUT /usr/share/texmf-dist/tex/latex/l3packages/xparse/xparse-generic.tex
INPUT /usr/share/texmf-dist/tex/latex/l3packages/xparse/xparse-generic.tex
INPUT /usr/share/texmf-dist/tex/latex/amsmath/amstext.sty
INPUT /usr/share/texmf-dist/tex/latex/amsmath/amstext.sty
INPUT /usr/share/texmf-dist/tex/latex/amsmath/amsgen.sty
INPUT /usr/share/texmf-dist/tex/latex/amsmath/amsgen.sty
INPUT /usr/share/texmf-dist/tex/latex/tools/array.sty
INPUT /usr/share/texmf-dist/tex/latex/tools/array.sty
INPUT /usr/share/texmf-dist/tex/latex/l3packages/l3keys2e/l3keys2e.sty
INPUT /usr/share/texmf-dist/tex/latex/l3packages/l3keys2e/l3keys2e.sty
INPUT /usr/share/texmf-dist/tex/latex/translator/translator.sty
INPUT /usr/share/texmf-dist/tex/latex/translator/translator.sty
INPUT /usr/share/texmf-dist/tex/latex/translator/translator.sty
INPUT /usr/share/texmf-dist/tex/latex/titling/titling.sty
INPUT /usr/share/texmf-dist/tex/latex/titling/titling.sty
INPUT /usr/share/texmf-dist/tex/latex/graphics/graphicx.sty
INPUT /usr/share/texmf-dist/tex/latex/graphics/graphicx.sty
INPUT /usr/share/texmf-dist/tex/latex/graphics/graphics.sty
INPUT /usr/share/texmf-dist/tex/latex/graphics/graphics.sty
INPUT /usr/share/texmf-dist/tex/latex/graphics/trig.sty
INPUT /usr/share/texmf-dist/tex/latex/graphics/trig.sty
INPUT /usr/share/texmf-dist/tex/latex/graphics-cfg/graphics.cfg
INPUT /usr/share/texmf-dist/tex/latex/graphics-cfg/graphics.cfg
INPUT /usr/share/texmf-dist/tex/latex/graphics-def/pdftex.def
INPUT /usr/share/texmf-dist/tex/latex/graphics-def/pdftex.def
INPUT /usr/share/texmf-dist/tex/latex/base/inputenc.sty
INPUT /usr/share/texmf-dist/tex/latex/base/inputenc.sty
INPUT /usr/share/texmf-dist/tex/latex/titlesec/titlesec.sty
INPUT /usr/share/texmf-dist/tex/latex/titlesec/titlesec.sty
INPUT /usr/share/texmf-dist/tex/latex/mdwtools/sverb.sty
INPUT /usr/share/texmf-dist/tex/latex/mdwtools/sverb.sty
INPUT /usr/share/texmf-dist/tex/latex/hyphenat/hyphenat.sty
INPUT /usr/share/texmf-dist/tex/latex/hyphenat/hyphenat.sty
INPUT /usr/share/texmf-dist/tex/latex/tools/multicol.sty
INPUT /usr/share/texmf-dist/tex/latex/tools/multicol.sty
INPUT /usr/share/texmf-dist/tex/latex/subfig/subfig.sty
INPUT /usr/share/texmf-dist/tex/latex/subfig/subfig.sty
INPUT /usr/share/texmf-dist/tex/latex/caption/caption.sty
INPUT /usr/share/texmf-dist/tex/latex/caption/caption.sty
INPUT /usr/share/texmf-dist/tex/latex/caption/caption3.sty
INPUT /usr/share/texmf-dist/tex/latex/caption/caption3.sty
INPUT /usr/share/texmf-dist/tex/latex/amsmath/amsmath.sty
INPUT /usr/share/texmf-dist/tex/latex/amsmath/amsmath.sty
INPUT /usr/share/texmf-dist/tex/latex/amsmath/amsbsy.sty
INPUT /usr/share/texmf-dist/tex/latex/amsmath/amsbsy.sty
INPUT /usr/share/texmf-dist/tex/latex/amsmath/amsopn.sty
INPUT /usr/share/texmf-dist/tex/latex/amsmath/amsopn.sty
INPUT /usr/share/texmf-dist/tex/latex/titlesec/titleps.sty
INPUT /usr/share/texmf-dist/tex/latex/titlesec/titleps.sty
INPUT spr.aux
INPUT spr.aux
OUTPUT spr.aux
INPUT /usr/share/texmf-dist/tex/latex/translator/translator-basic-dictionary-English.dict
INPUT /usr/share/texmf-dist/tex/latex/translator/translator-basic-dictionary-English.dict
INPUT /usr/share/texmf-dist/tex/latex/siunitx/siunitx-abbreviations.cfg
INPUT /usr/share/texmf-dist/tex/latex/siunitx/siunitx-abbreviations.cfg
INPUT /usr/share/texmf-dist/tex/context/base/mkii/supp-pdf.mkii
INPUT /usr/share/texmf-dist/tex/context/base/mkii/supp-pdf.mkii
INPUT /usr/share/texmf-dist/tex/latex/epstopdf-pkg/epstopdf-base.sty
INPUT /usr/share/texmf-dist/tex/latex/epstopdf-pkg/epstopdf-base.sty
INPUT /usr/share/texmf-dist/tex/generic/infwarerr/infwarerr.sty
INPUT /usr/share/texmf-dist/tex/generic/infwarerr/infwarerr.sty
INPUT /usr/share/texmf-dist/tex/latex/grfext/grfext.sty
INPUT /usr/share/texmf-dist/tex/latex/grfext/grfext.sty
INPUT /usr/share/texmf-dist/tex/generic/kvdefinekeys/kvdefinekeys.sty
INPUT /usr/share/texmf-dist/tex/generic/kvdefinekeys/kvdefinekeys.sty
INPUT /usr/share/texmf-dist/tex/latex/kvoptions/kvoptions.sty
INPUT /usr/share/texmf-dist/tex/latex/kvoptions/kvoptions.sty
INPUT /usr/share/texmf-dist/tex/generic/ltxcmds/ltxcmds.sty
INPUT /usr/share/texmf-dist/tex/generic/ltxcmds/ltxcmds.sty
INPUT /usr/share/texmf-dist/tex/generic/kvsetkeys/kvsetkeys.sty
INPUT /usr/share/texmf-dist/tex/generic/kvsetkeys/kvsetkeys.sty
INPUT /usr/share/texmf-dist/tex/latex/pdftexcmds/pdftexcmds.sty
INPUT /usr/share/texmf-dist/tex/latex/pdftexcmds/pdftexcmds.sty
INPUT /usr/share/texmf-dist/tex/generic/iftex/iftex.sty
INPUT /usr/share/texmf-dist/tex/generic/iftex/iftex.sty
INPUT /usr/share/texmf-dist/tex/latex/latexconfig/epstopdf-sys.cfg
INPUT /usr/share/texmf-dist/tex/latex/latexconfig/epstopdf-sys.cfg
INPUT /usr/share/texmf-dist/fonts/tfm/public/pl/plr8.tfm
INPUT /usr/share/texmf-dist/fonts/tfm/public/pl/plr6.tfm
INPUT /usr/share/texmf-dist/tex/latex/polski/omlplm.fd
INPUT /usr/share/texmf-dist/tex/latex/polski/omlplm.fd
INPUT /usr/share/texmf-dist/fonts/tfm/public/pl/plmi12.tfm
INPUT /usr/share/texmf-dist/fonts/tfm/public/pl/plmi8.tfm
INPUT /usr/share/texmf-dist/fonts/tfm/public/pl/plmi6.tfm
INPUT /usr/share/texmf-dist/tex/latex/polski/omsplsy.fd
INPUT /usr/share/texmf-dist/tex/latex/polski/omsplsy.fd
INPUT /usr/share/texmf-dist/fonts/tfm/public/pl/plsy10.tfm
INPUT /usr/share/texmf-dist/fonts/tfm/public/pl/plsy8.tfm
INPUT /usr/share/texmf-dist/fonts/tfm/public/pl/plsy6.tfm
INPUT /usr/share/texmf-dist/tex/latex/polski/omxplex.fd
INPUT /usr/share/texmf-dist/tex/latex/polski/omxplex.fd
INPUT /usr/share/texmf-dist/fonts/tfm/public/pl/plex10.tfm
INPUT /usr/share/texmf-dist/tex/latex/polski/ot4cmss.fd
INPUT /usr/share/texmf-dist/tex/latex/polski/ot4cmss.fd
INPUT /usr/share/texmf-dist/fonts/tfm/public/pl/plss12.tfm
INPUT /usr/share/texmf-dist/fonts/tfm/public/pl/plss8.tfm
INPUT /usr/share/texmf-dist/fonts/tfm/public/pl/plss8.tfm
INPUT /usr/share/texmf-dist/tex/latex/polski/ot4cmtt.fd
INPUT /usr/share/texmf-dist/tex/latex/polski/ot4cmtt.fd
INPUT /usr/share/texmf-dist/fonts/tfm/public/pl/pltt12.tfm
INPUT /usr/share/texmf-dist/fonts/tfm/public/pl/pltt8.tfm
INPUT /usr/share/texmf-dist/fonts/tfm/public/pl/pltt8.tfm
INPUT ./media/agh.jpg
INPUT ./media/agh.jpg
OUTPUT spr.pdf
INPUT ./media/agh.jpg
INPUT /usr/share/texmf-dist/fonts/tfm/public/pl/plr17.tfm
INPUT /usr/share/texmf-dist/fonts/tfm/public/pl/plbx12.tfm
INPUT /usr/share/texmf-dist/fonts/tfm/public/pl/plr12.tfm
INPUT /usr/share/texmf-dist/fonts/tfm/public/pl/plbx12.tfm
INPUT /usr/share/texmf-dist/fonts/tfm/public/pl/plcsc10.tfm
INPUT /var/lib/texmf/fonts/map/pdftex/updmap/pdftex.map
INPUT r1.tex
INPUT r1.tex
INPUT /usr/share/texmf-dist/fonts/tfm/public/pl/plr17.tfm
INPUT /usr/share/texmf-dist/fonts/tfm/public/pl/plbx12.tfm
INPUT ../morda.jpg
INPUT ../morda.jpg
INPUT ../morda.jpg
INPUT ../obr2.pdf
INPUT ../obr2.pdf
INPUT ../obr2.pdf
INPUT /usr/share/texmf-dist/fonts/tfm/public/pl/plr5.tfm
INPUT /usr/share/texmf-dist/fonts/tfm/public/pl/plmi5.tfm
INPUT /usr/share/texmf-dist/fonts/tfm/public/pl/plsy5.tfm
INPUT /usr/share/texmf-dist/fonts/tfm/public/pl/plss8.tfm
INPUT /usr/share/texmf-dist/fonts/tfm/public/pl/pltt8.tfm
INPUT /usr/share/texmf-dist/fonts/tfm/jknappen/ec/tcrm1200.tfm
INPUT /usr/share/texmf-dist/fonts/tfm/jknappen/ec/tcrm0800.tfm
INPUT /usr/share/texmf-dist/fonts/tfm/jknappen/ec/tcrm0600.tfm
INPUT /usr/share/texmf-dist/fonts/tfm/jknappen/ec/tcrm0500.tfm
INPUT ../obr3.pdf
INPUT ../obr3.pdf
INPUT ../obr3.pdf
INPUT ../obr4.pdf
INPUT ../obr4.pdf
INPUT ../obr4.pdf
INPUT ../obr5.pdf
INPUT ../obr5.pdf
INPUT ../obr5.pdf
INPUT ../obr6.pdf
INPUT ../obr6.pdf
INPUT ../obr6.pdf
INPUT ../obr7.pdf
INPUT ../obr7.pdf
INPUT ../obr7.pdf
INPUT ../obr8.pdf
INPUT ../obr8.pdf
INPUT ../obr8.pdf
INPUT ../obr9.pdf
INPUT ../obr9.pdf
INPUT ../obr9.pdf
INPUT ../obr10.pdf
INPUT ../obr10.pdf
INPUT ../obr10.pdf
INPUT ../obr12.pdf
INPUT ../obr12.pdf
INPUT ../obr12.pdf
INPUT ../obr13.pdf
INPUT ../obr13.pdf
INPUT ../obr13.pdf
INPUT ../obr11.pdf
INPUT ../obr11.pdf
INPUT ../obr11.pdf
INPUT ../obr14.pdf
INPUT ../obr14.pdf
INPUT ../obr14.pdf
INPUT ../obr15.pdf
INPUT ../obr15.pdf
INPUT ../obr15.pdf
INPUT ../obr17.pdf
INPUT ../obr17.pdf
INPUT ../obr17.pdf
INPUT ../obr18.pdf
INPUT ../obr18.pdf
INPUT ../obr18.pdf
INPUT ../obr19.pdf
INPUT ../obr19.pdf
INPUT ../obr19.pdf
INPUT ../obr20.pdf
INPUT ../obr20.pdf
INPUT ../obr20.pdf
INPUT ../obr21.pdf
INPUT ../obr21.pdf
INPUT ../obr21.pdf
INPUT ../obr22.pdf
INPUT ../obr22.pdf
INPUT ../obr22.pdf
INPUT ../obr16.pdf
INPUT ../obr16.pdf
INPUT ../obr16.pdf
INPUT ../obr24.pdf
INPUT ../obr24.pdf
INPUT ../obr24.pdf
INPUT ../obr25.pdf
INPUT ../obr25.pdf
INPUT ../obr25.pdf
INPUT ../obr26.pdf
INPUT ../obr26.pdf
INPUT ../obr26.pdf
INPUT ../obr27.pdf
INPUT ../obr27.pdf
INPUT ../obr27.pdf
INPUT ../obr28.pdf
INPUT ../obr28.pdf
INPUT ../obr28.pdf
INPUT ../obr29.pdf
INPUT ../obr29.pdf
INPUT ../obr29.pdf
INPUT ../obr31.pdf
INPUT ../obr31.pdf
INPUT ../obr31.pdf
INPUT ../obr32.pdf
INPUT ../obr32.pdf
INPUT ../obr32.pdf
INPUT /usr/share/texmf-dist/fonts/tfm/public/pl/plbx12.tfm
INPUT ../obr33.pdf
INPUT ../obr33.pdf
INPUT ../obr33.pdf
INPUT ../obr34.pdf
INPUT ../obr34.pdf
INPUT ../obr34.pdf
INPUT ../obr35.pdf
INPUT ../obr35.pdf
INPUT ../obr35.pdf
INPUT ../obr36.pdf
INPUT ../obr36.pdf
INPUT ../obr36.pdf
INPUT ../obr37.pdf
INPUT ../obr37.pdf
INPUT ../obr37.pdf
INPUT ../obrdet.pdf
INPUT ../obrdet.pdf
INPUT ../obrdet.pdf
INPUT /usr/share/texmf-dist/tex/latex/listings/lstlang1.sty
INPUT /usr/share/texmf-dist/tex/latex/listings/lstlang1.sty
INPUT ../obrazkiskrypt.m
INPUT ../obrazkiskrypt.m
INPUT ../obrazkiskrypt.m
INPUT /usr/share/texmf-dist/fonts/tfm/public/pl/plbx6.tfm
INPUT /usr/share/texmf-dist/fonts/tfm/public/pl/plti7.tfm
INPUT /usr/share/texmf-dist/fonts/tfm/jknappen/ec/tcti0600.tfm
INPUT /usr/share/texmf-dist/tex/latex/base/omscmr.fd
INPUT /usr/share/texmf-dist/tex/latex/base/omscmr.fd
INPUT /usr/share/texmf-dist/fonts/tfm/public/cm/cmsy6.tfm
INPUT spr.aux
INPUT /usr/share/texmf-dist/fonts/enc/dvips/cm-super/cm-super-ts1.enc
INPUT /usr/share/texmf-dist/fonts/enc/dvips/pl/plit.enc
INPUT /usr/share/texmf-dist/fonts/enc/dvips/pl/plrm.enc
INPUT /usr/share/texmf-dist/fonts/enc/dvips/pl/plmi.enc
INPUT /usr/share/texmf-dist/fonts/enc/dvips/pl/plms.enc
INPUT /usr/share/texmf-dist/fonts/enc/dvips/pl/plme.enc
INPUT /usr/share/texmf-dist/fonts/enc/dvips/pl/plsc.enc
INPUT /usr/share/texmf-dist/fonts/type1/public/amsfonts/cm/cmsy6.pfb
INPUT /usr/share/texmf-dist/fonts/type1/public/pl/plbx12.pfb
INPUT /usr/share/texmf-dist/fonts/type1/public/pl/plbx6.pfb
INPUT /usr/share/texmf-dist/fonts/type1/public/pl/plcsc10.pfb
INPUT /usr/share/texmf-dist/fonts/type1/public/pl/plex10.pfb
INPUT /usr/share/texmf-dist/fonts/type1/public/pl/plmi12.pfb
INPUT /usr/share/texmf-dist/fonts/type1/public/pl/plmi8.pfb
INPUT /usr/share/texmf-dist/fonts/type1/public/pl/plr12.pfb
INPUT /usr/share/texmf-dist/fonts/type1/public/pl/plr6.pfb
INPUT /usr/share/texmf-dist/fonts/type1/public/pl/plr8.pfb
INPUT /usr/share/texmf-dist/fonts/type1/public/pl/plsy10.pfb
INPUT /usr/share/texmf-dist/fonts/type1/public/pl/plti7.pfb
INPUT /usr/share/texmf-dist/fonts/type1/public/cm-super/sfrm0600.pfb
INPUT /usr/share/texmf-dist/fonts/type1/public/cm-super/sfrm1200.pfb
INPUT /usr/share/texmf-dist/fonts/type1/public/cm-super/sfti0600.pfb
