\relax 
\@writefile{toc}{\contentsline {section}{\numberline {1}Cel laboratoriów}{1}\protected@file@percent }
\@writefile{toc}{\contentsline {subsection}{\numberline {1.1}Obraz wejściowy}{1}\protected@file@percent }
\@writefile{lof}{\contentsline {figure}{\numberline {1}{\ignorespaces Obraz wejściowy\relax }}{1}\protected@file@percent }
\providecommand*\caption@xref[2]{\@setref\relax\@undefined{#1}}
\newlabel{f1}{{1}{1}}
\@writefile{toc}{\contentsline {section}{\numberline {2}Proste przekształcenia obrazu}{2}\protected@file@percent }
\@writefile{toc}{\contentsline {subsection}{\numberline {2.1}Skalowanie obrazu}{2}\protected@file@percent }
\@writefile{lof}{\contentsline {figure}{\numberline {2}{\ignorespaces Obraz po skalowaniu\relax }}{2}\protected@file@percent }
\newlabel{f2}{{2}{2}}
\@writefile{toc}{\contentsline {subsection}{\numberline {2.2}Obracanie obrazu}{3}\protected@file@percent }
\@writefile{lof}{\contentsline {figure}{\numberline {3}{\ignorespaces Obraz po obróceniu\relax }}{3}\protected@file@percent }
\newlabel{f3}{{3}{3}}
\@writefile{toc}{\contentsline {subsection}{\numberline {2.3}Kadrowanie obrazu}{4}\protected@file@percent }
\@writefile{lof}{\contentsline {figure}{\numberline {4}{\ignorespaces Obraz po kadrowaniu\relax }}{4}\protected@file@percent }
\newlabel{f4}{{4}{4}}
\@writefile{toc}{\contentsline {subsection}{\numberline {2.4}Transformacja obrazu}{5}\protected@file@percent }
\@writefile{lof}{\contentsline {figure}{\numberline {5}{\ignorespaces Obraz po transformacji\relax }}{5}\protected@file@percent }
\newlabel{f5}{{5}{5}}
\@writefile{toc}{\contentsline {section}{\numberline {3}Przekształcenia punktowe}{6}\protected@file@percent }
\@writefile{toc}{\contentsline {subsection}{\numberline {3.1}Dodawanie stałej}{6}\protected@file@percent }
\@writefile{lof}{\contentsline {figure}{\numberline {6}{\ignorespaces Obraz po dodaniu stałej\relax }}{6}\protected@file@percent }
\newlabel{f6}{{6}{6}}
\@writefile{toc}{\contentsline {subsection}{\numberline {3.2}Odejmowanie stałej}{7}\protected@file@percent }
\@writefile{lof}{\contentsline {figure}{\numberline {7}{\ignorespaces Obraz po odjęciu stałej\relax }}{7}\protected@file@percent }
\newlabel{f7}{{7}{7}}
\@writefile{toc}{\contentsline {subsection}{\numberline {3.3}Mnożenie przez stałą}{8}\protected@file@percent }
\@writefile{lof}{\contentsline {figure}{\numberline {8}{\ignorespaces Obraz po wymnożeniu przez stałą\relax }}{8}\protected@file@percent }
\newlabel{f8}{{8}{8}}
\@writefile{toc}{\contentsline {subsection}{\numberline {3.4}Operacja dwuargumentowa}{9}\protected@file@percent }
\@writefile{lof}{\contentsline {figure}{\numberline {9}{\ignorespaces Obraz po zastosowaniu operacji dwuargumentowej\relax }}{9}\protected@file@percent }
\newlabel{f9}{{9}{9}}
\@writefile{toc}{\contentsline {subsection}{\numberline {3.5}Suma dwóch obrazów}{10}\protected@file@percent }
\@writefile{lof}{\contentsline {figure}{\numberline {10}{\ignorespaces Obraz po zsumowaniu z samym sobą\relax }}{10}\protected@file@percent }
\newlabel{f10}{{10}{10}}
\@writefile{toc}{\contentsline {subsection}{\numberline {3.6}Wyrównanie histogramu}{11}\protected@file@percent }
\@writefile{lof}{\contentsline {figure}{\numberline {11}{\ignorespaces Histogram przed wyrównaniem\relax }}{11}\protected@file@percent }
\newlabel{f11}{{11}{11}}
\@writefile{lof}{\contentsline {figure}{\numberline {12}{\ignorespaces Histogram po wyrównaniu\relax }}{12}\protected@file@percent }
\newlabel{f12}{{12}{12}}
\@writefile{lof}{\contentsline {figure}{\numberline {13}{\ignorespaces Obraz po wyrównaniu histogramu\relax }}{12}\protected@file@percent }
\newlabel{f13}{{13}{12}}
\@writefile{toc}{\contentsline {subsection}{\numberline {3.7}Modulacja gamma}{13}\protected@file@percent }
\@writefile{lof}{\contentsline {figure}{\numberline {14}{\ignorespaces Obraz po korekcji gamma\relax }}{13}\protected@file@percent }
\newlabel{f14}{{14}{13}}
\@writefile{toc}{\contentsline {subsection}{\numberline {3.8}Binaryzacja}{14}\protected@file@percent }
\@writefile{lof}{\contentsline {figure}{\numberline {15}{\ignorespaces Obraz po binaryzacji\relax }}{14}\protected@file@percent }
\newlabel{f15}{{15}{14}}
\@writefile{toc}{\contentsline {section}{\numberline {4}Przekształcenia kontekstowe}{15}\protected@file@percent }
\@writefile{toc}{\contentsline {subsection}{\numberline {4.1}Filtracja dolnoprzepustowa}{15}\protected@file@percent }
\@writefile{lof}{\contentsline {figure}{\numberline {16}{\ignorespaces Obraz po filtracji dolnoprzepustowej\relax }}{15}\protected@file@percent }
\newlabel{f16}{{16}{15}}
\@writefile{toc}{\contentsline {subsection}{\numberline {4.2}Filtracja górnoprzepustowa}{16}\protected@file@percent }
\@writefile{lof}{\contentsline {figure}{\numberline {17}{\ignorespaces Obraz po filtracji górnoprzepustowej\relax }}{16}\protected@file@percent }
\newlabel{f17}{{17}{16}}
\@writefile{toc}{\contentsline {subsection}{\numberline {4.3}Filtr Roberts'a}{17}\protected@file@percent }
\@writefile{lof}{\contentsline {figure}{\numberline {18}{\ignorespaces Obraz po filtracji filtrem Roberts'a\relax }}{17}\protected@file@percent }
\newlabel{f19}{{18}{17}}
\@writefile{toc}{\contentsline {subsection}{\numberline {4.4}Maska Sobel'a}{18}\protected@file@percent }
\@writefile{lof}{\contentsline {figure}{\numberline {19}{\ignorespaces Obraz po zastosowaniu maski Sobel'a\relax }}{18}\protected@file@percent }
\newlabel{f20}{{19}{18}}
\@writefile{toc}{\contentsline {subsection}{\numberline {4.5}Maska Prewitt'a}{19}\protected@file@percent }
\@writefile{lof}{\contentsline {figure}{\numberline {20}{\ignorespaces Obraz po zastosowaniu Maski Brewitt'a\relax }}{19}\protected@file@percent }
\newlabel{f21}{{20}{19}}
\@writefile{toc}{\contentsline {subsection}{\numberline {4.6}Laplacean}{20}\protected@file@percent }
\@writefile{lof}{\contentsline {figure}{\numberline {21}{\ignorespaces Obraz po zastosowaniu Laplaceanu\relax }}{20}\protected@file@percent }
\newlabel{f22}{{21}{20}}
\@writefile{toc}{\contentsline {subsection}{\numberline {4.7}Transformata Fouriera}{21}\protected@file@percent }
\@writefile{lof}{\contentsline {figure}{\numberline {22}{\ignorespaces Moduł transformaty Fouriera obrazu\relax }}{21}\protected@file@percent }
\newlabel{f23}{{22}{21}}
\@writefile{toc}{\contentsline {subsection}{\numberline {4.8}Filtr uśredniający}{22}\protected@file@percent }
\@writefile{lof}{\contentsline {figure}{\numberline {23}{\ignorespaces Obraz po zastosowaniu filtra uśredniającego\relax }}{22}\protected@file@percent }
\newlabel{f24}{{23}{22}}
\@writefile{toc}{\contentsline {subsection}{\numberline {4.9}Filtr medianowy}{23}\protected@file@percent }
\@writefile{lof}{\contentsline {figure}{\numberline {24}{\ignorespaces Obraz z zakłóceniami\relax }}{23}\protected@file@percent }
\newlabel{f25}{{24}{23}}
\@writefile{lof}{\contentsline {figure}{\numberline {25}{\ignorespaces Obraz z zakłóceniami po filtracji medianowej\relax }}{23}\protected@file@percent }
\newlabel{f26}{{25}{23}}
\@writefile{toc}{\contentsline {section}{\numberline {5}Przekształcenia morfologiczne}{24}\protected@file@percent }
\@writefile{toc}{\contentsline {subsection}{\numberline {5.1}Erozja}{24}\protected@file@percent }
\@writefile{lof}{\contentsline {figure}{\numberline {26}{\ignorespaces Erozja pionowa\relax }}{24}\protected@file@percent }
\newlabel{f27}{{26}{24}}
\@writefile{lof}{\contentsline {figure}{\numberline {27}{\ignorespaces Erozja pozioma\relax }}{25}\protected@file@percent }
\newlabel{f28}{{27}{25}}
\@writefile{toc}{\contentsline {subsection}{\numberline {5.2}Dylatacja}{26}\protected@file@percent }
\@writefile{lof}{\contentsline {figure}{\numberline {28}{\ignorespaces Dylatacja liniowaj\relax }}{26}\protected@file@percent }
\newlabel{f29}{{28}{26}}
\@writefile{lof}{\contentsline {figure}{\numberline {29}{\ignorespaces Dylatacja 'dysk'\relax }}{26}\protected@file@percent }
\newlabel{f30}{{29}{26}}
\@writefile{lof}{\contentsline {figure}{\numberline {30}{\ignorespaces Dylatacja arbitralna\relax }}{27}\protected@file@percent }
\newlabel{f31}{{30}{27}}
\@writefile{toc}{\contentsline {subsection}{\numberline {5.3}Pocienianie}{28}\protected@file@percent }
\@writefile{lof}{\contentsline {figure}{\numberline {31}{\ignorespaces Pocienianie\relax }}{28}\protected@file@percent }
\newlabel{f32}{{31}{28}}
\@writefile{toc}{\contentsline {subsection}{\numberline {5.4}Szkieletyzacja}{29}\protected@file@percent }
\@writefile{lof}{\contentsline {figure}{\numberline {32}{\ignorespaces Szkieletyzacja\relax }}{29}\protected@file@percent }
\newlabel{f34}{{32}{29}}
\@writefile{toc}{\contentsline {subsection}{\numberline {5.5}Wykrywanie centroidów}{30}\protected@file@percent }
\@writefile{lof}{\contentsline {figure}{\numberline {33}{\ignorespaces Wykrywanie centroidów\relax }}{30}\protected@file@percent }
\newlabel{f35}{{33}{30}}
\@writefile{toc}{\contentsline {subsection}{\numberline {5.6}Wykrywanie narożników}{31}\protected@file@percent }
\@writefile{lof}{\contentsline {figure}{\numberline {34}{\ignorespaces Wykrywanie prawych górnych narożników\relax }}{31}\protected@file@percent }
\newlabel{f36}{{34}{31}}
\@writefile{lof}{\contentsline {figure}{\numberline {35}{\ignorespaces Wykrywanie lewych dolnych narożników\relax }}{31}\protected@file@percent }
\newlabel{f37}{{35}{31}}
\@writefile{lof}{\contentsline {figure}{\numberline {36}{\ignorespaces Otrzymane pomiary\relax }}{32}\protected@file@percent }
\@writefile{toc}{\contentsline {section}{\numberline {6}Wykrywanie odległości elementów twarzy}{32}\protected@file@percent }
\@writefile{toc}{\contentsline {section}{\numberline {A}Kod źródłowy}{33}\protected@file@percent }
\newlabel{prog}{{1}{33}}
\@writefile{lol}{\contentsline {lstlisting}{\numberline {1}Kod źródłowy programu obrazki.mlx}{33}\protected@file@percent }
