# Fdb version 3
["pdflatex"] 1593256287 "spr.tex" "spr.pdf" "spr" 1593256288
  "../morda.jpg" 1591102266 33269 550da87dd894e9706504395da12f00ec ""
  "../obr10.pdf" 1593052027 537595 1643743a2fda9a384422f52c41dbee57 ""
  "../obr11.pdf" 1593052029 776956 3fd83c4b27002d4bbf6d402f62f1686e ""
  "../obr12.pdf" 1593052029 15270 827414746b5bc7d88710bd8a5a8049a5 ""
  "../obr13.pdf" 1593052029 14154 21cbd330f53cbcb816834da22081a422 ""
  "../obr14.pdf" 1593052031 805214 8feb5f9cd68de90329e2c431a1753ab6 ""
  "../obr15.pdf" 1593052032 146650 6ca0710c6f2206c5d92f3d6226627e24 ""
  "../obr16.pdf" 1593052034 1592787 b23f27a177f66f1e4659d7d52ba72643 ""
  "../obr17.pdf" 1593052035 842112 d904b59562059791bdd38b13f66f10fd ""
  "../obr18.pdf" 1593052037 965822 a7606c3825ee0f930f6fcdefb9d4fc07 ""
  "../obr19.pdf" 1593052038 956493 cd7ae24f917f7b70b84ee95254bc9da2 ""
  "../obr2.pdf" 1593052016 514748 6707309533da3c4987bc74aa87d340a4 ""
  "../obr20.pdf" 1593052039 985830 c62000b49bf11f41bdbd663462ffa494 ""
  "../obr21.pdf" 1593052041 622078 34ad59013b0c2292544a763999b7ed63 ""
  "../obr22.pdf" 1593052042 1068064 8f065a97c57e2d0118321dbaebe872f8 ""
  "../obr24.pdf" 1593052044 922669 14b3ba3328bd18396606b0ad11d3d9e8 ""
  "../obr25.pdf" 1593052045 1102666 27e9b1847bcff031253329b6f9567bb2 ""
  "../obr26.pdf" 1593052047 972205 9899496290c197d920ad7b7e43ce5afd ""
  "../obr27.pdf" 1593052048 688472 c9636b1385285d76e5e199d6bc2a6b04 ""
  "../obr28.pdf" 1593052049 626336 5e7640570375ba90829664343c1fb4b5 ""
  "../obr29.pdf" 1593052051 676200 50cc5190e5f76a00a09e94e3771a9b47 ""
  "../obr3.pdf" 1593052018 1071512 16690dcf07bd7836d333893ee30c66bc ""
  "../obr31.pdf" 1593052052 444282 ed497579cf22d597a73a92b566993bb4 ""
  "../obr32.pdf" 1593052053 711647 d05e52d8651c5bf9e9f3d2ed308cc2eb ""
  "../obr33.pdf" 1593052055 160819 02df8d91219202be5456b67dc5121e74 ""
  "../obr34.pdf" 1593052056 147546 06a28f3bea635f43258d40ebbba793be ""
  "../obr35.pdf" 1593052058 154837 37d06afa32837c00c70068c29f227897 ""
  "../obr36.pdf" 1593052059 326131 fe9af8832a5a2b20d01fafbe35806ecd ""
  "../obr37.pdf" 1593052060 327070 baf8816649f1a42f7cb8c6c3aa2cf340 ""
  "../obr4.pdf" 1593052019 140004 f7c580ed5068a3aae993878d6ccdf7cd ""
  "../obr5.pdf" 1593052020 1096780 252a589afa8b7fdba12b0a9b3d8c116e ""
  "../obr6.pdf" 1593052022 1020080 38918cd249ef7642f550fc8d355376c3 ""
  "../obr7.pdf" 1593052023 1021366 9adb1f622953c709184b58afb80dfb33 ""
  "../obr8.pdf" 1593052025 973543 a7dcbae3f22d5ea413c35e1a058c04d2 ""
  "../obr9.pdf" 1593052026 84933 1415ecb5d588d04dfc4c76e677eeaba1 ""
  "../obrazkiskrypt.m" 1593051965 5982 9795b4a80b3d3d62650f5ed2e1aebd01 ""
  "../obrdet.pdf" 1593256261 1047204 be9d2421a874fc964ca7cc8855854c40 ""
  "/usr/share/texmf-dist/fonts/enc/dvips/cm-super/cm-super-ts1.enc" 1591545468 2900 1537cc8184ad1792082cd229ecc269f4 ""
  "/usr/share/texmf-dist/fonts/enc/dvips/pl/plit.enc" 1591545468 1946 62ba825cda1ff16dbaa60d53ac60525a ""
  "/usr/share/texmf-dist/fonts/enc/dvips/pl/plme.enc" 1591545468 3126 59f33ff3e396436ebc36f4e7b444d5c4 ""
  "/usr/share/texmf-dist/fonts/enc/dvips/pl/plmi.enc" 1591545468 2005 f094775651a1386335c158fb632529f1 ""
  "/usr/share/texmf-dist/fonts/enc/dvips/pl/plms.enc" 1591545468 2468 3f9e2f3088bcf5b581dfc367d71e7d95 ""
  "/usr/share/texmf-dist/fonts/enc/dvips/pl/plrm.enc" 1591545468 1944 1845592c00bbe510359fd6887a83ff72 ""
  "/usr/share/texmf-dist/fonts/enc/dvips/pl/plsc.enc" 1591545468 1970 17f08459267325f59652d212eb7ed719 ""
  "/usr/share/texmf-dist/fonts/map/fontname/texfonts.map" 1591545468 3524 cb3e574dea2d1052e39280babc910dc8 ""
  "/usr/share/texmf-dist/fonts/tfm/jknappen/ec/tcrm0500.tfm" 1591545468 1536 b3387106d9afecbfe14bde2de6eadf47 ""
  "/usr/share/texmf-dist/fonts/tfm/jknappen/ec/tcrm0600.tfm" 1591545468 1536 12e8c510d3e158fdd0e9a42e75118bd9 ""
  "/usr/share/texmf-dist/fonts/tfm/jknappen/ec/tcrm0800.tfm" 1591545468 1536 05df9db6aeccc4eea94fec15c9024f79 ""
  "/usr/share/texmf-dist/fonts/tfm/jknappen/ec/tcrm1200.tfm" 1591545468 1536 74b7293ec3713bb7fdca8dd1bd1f469c ""
  "/usr/share/texmf-dist/fonts/tfm/jknappen/ec/tcti0600.tfm" 1591545468 2048 c58e45fa93707b5d41a9fba568d101e4 ""
  "/usr/share/texmf-dist/fonts/tfm/public/cm/cmr12.tfm" 1591545468 1288 655e228510b4c2a1abe905c368440826 ""
  "/usr/share/texmf-dist/fonts/tfm/public/cm/cmsy6.tfm" 1591545468 1116 933a60c408fc0a863a92debe84b2d294 ""
  "/usr/share/texmf-dist/fonts/tfm/public/pl/plbx12.tfm" 1591545468 2112 e31d5b368c33d42906fcc26c9ca0a59c ""
  "/usr/share/texmf-dist/fonts/tfm/public/pl/plbx6.tfm" 1591545468 2136 fe7e8613da9d5c5d815ae6349be1b039 ""
  "/usr/share/texmf-dist/fonts/tfm/public/pl/plcsc10.tfm" 1591545468 2140 d2ca82625bedca0b1948a5da5764d911 ""
  "/usr/share/texmf-dist/fonts/tfm/public/pl/plex10.tfm" 1591545468 992 93098cecc00cfdb7e881cb8983ca7545 ""
  "/usr/share/texmf-dist/fonts/tfm/public/pl/plmi12.tfm" 1591545468 1524 234f65aa0171d619f32097d0f9186df0 ""
  "/usr/share/texmf-dist/fonts/tfm/public/pl/plmi5.tfm" 1591545468 1508 a2d14c74291841992fa64fe998b36f97 ""
  "/usr/share/texmf-dist/fonts/tfm/public/pl/plmi6.tfm" 1591545468 1512 01fe68a80e3d13383410f67b67ce344d ""
  "/usr/share/texmf-dist/fonts/tfm/public/pl/plmi8.tfm" 1591545468 1520 1a3ee2ce8d697eaf56e43f8d2c40cb71 ""
  "/usr/share/texmf-dist/fonts/tfm/public/pl/plr12.tfm" 1591545468 2076 e1758d4caaf275a731cf0532450f26f0 ""
  "/usr/share/texmf-dist/fonts/tfm/public/pl/plr17.tfm" 1591545468 2080 b61c70f1a22b45d92358c39b67ea9906 ""
  "/usr/share/texmf-dist/fonts/tfm/public/pl/plr5.tfm" 1591545468 2008 3b7792da2ec68e9d8515961176bc983d ""
  "/usr/share/texmf-dist/fonts/tfm/public/pl/plr6.tfm" 1591545468 2088 aa80c569a200447488b571f8bf7b132b ""
  "/usr/share/texmf-dist/fonts/tfm/public/pl/plr8.tfm" 1591545468 2080 290449bfe12d41e2714fa828fd909bf8 ""
  "/usr/share/texmf-dist/fonts/tfm/public/pl/plss12.tfm" 1591545468 2056 08ef6bc7320053d6a40021d0a465c768 ""
  "/usr/share/texmf-dist/fonts/tfm/public/pl/plss8.tfm" 1591545468 2028 9ac465826c57e10b7ab4e705d98be1de ""
  "/usr/share/texmf-dist/fonts/tfm/public/pl/plsy10.tfm" 1591545468 1308 adee1faadc465f51667a741ced3a8365 ""
  "/usr/share/texmf-dist/fonts/tfm/public/pl/plsy5.tfm" 1591545468 1296 bc803ec3860b078a8e22fb7a6202aa37 ""
  "/usr/share/texmf-dist/fonts/tfm/public/pl/plsy6.tfm" 1591545468 1300 730d55d47130c8c9a62c9e7eab4ae96a ""
  "/usr/share/texmf-dist/fonts/tfm/public/pl/plsy8.tfm" 1591545468 1304 3b6e6a90176144a582c7bcae45156f9b ""
  "/usr/share/texmf-dist/fonts/tfm/public/pl/plti7.tfm" 1591545468 2252 a88cb2fbfa7ce8f3be7c9e2aed1524a9 ""
  "/usr/share/texmf-dist/fonts/tfm/public/pl/pltt12.tfm" 1591545468 1284 c8c4a3eceb0e687daf7c6971a24f073f ""
  "/usr/share/texmf-dist/fonts/tfm/public/pl/pltt8.tfm" 1591545468 1280 1b405c85db15d819706215c5a33a841a ""
  "/usr/share/texmf-dist/fonts/type1/public/amsfonts/cm/cmsy6.pfb" 1591545468 32587 1788b0c1c5b39540c96f5e42ccd6dae8 ""
  "/usr/share/texmf-dist/fonts/type1/public/cm-super/sfrm0600.pfb" 1591545468 162624 9dcc92cd3b1dfe2ecc80e6da7f2eb6bd ""
  "/usr/share/texmf-dist/fonts/type1/public/cm-super/sfrm1200.pfb" 1591545468 136101 f533469f523533d38317ab5729d00c8a ""
  "/usr/share/texmf-dist/fonts/type1/public/cm-super/sfti0600.pfb" 1591545468 188157 fb474a5eda7d190f39fd181b54d2310a ""
  "/usr/share/texmf-dist/fonts/type1/public/pl/plbx12.pfb" 1591545468 26733 3fa55bab1df289b642fa8cd9e61fb25f ""
  "/usr/share/texmf-dist/fonts/type1/public/pl/plbx6.pfb" 1591545468 27264 f78d28147fcbefa672677354ad5dd5f2 ""
  "/usr/share/texmf-dist/fonts/type1/public/pl/plcsc10.pfb" 1591545468 26854 260e35f0156087ec159362abd8f70655 ""
  "/usr/share/texmf-dist/fonts/type1/public/pl/plex10.pfb" 1591545468 22371 094f80a5a689f2eefc72bff87ecbc407 ""
  "/usr/share/texmf-dist/fonts/type1/public/pl/plmi12.pfb" 1591545468 29704 5868c49c125729105d39d7e6e5638dd3 ""
  "/usr/share/texmf-dist/fonts/type1/public/pl/plmi8.pfb" 1591545468 29648 f588152f66151a0a6061bdcc4f5c0f53 ""
  "/usr/share/texmf-dist/fonts/type1/public/pl/plr12.pfb" 1591545468 27754 6f5ae55af1b64df2aab0bbeada447136 ""
  "/usr/share/texmf-dist/fonts/type1/public/pl/plr6.pfb" 1591545468 27619 a36beb06d666127033e016c42811fc92 ""
  "/usr/share/texmf-dist/fonts/type1/public/pl/plr8.pfb" 1591545468 27613 078d72cee58a40f102986ecdd23ed1c6 ""
  "/usr/share/texmf-dist/fonts/type1/public/pl/plsy10.pfb" 1591545468 26714 6fe260cd3a16c4a700b121f4edac67f2 ""
  "/usr/share/texmf-dist/fonts/type1/public/pl/plti7.pfb" 1591545468 32438 31b0f91f62ff4f16f57472f98d44217e ""
  "/usr/share/texmf-dist/tex/context/base/mkii/supp-pdf.mkii" 1591545468 71627 94eb9990bed73c364d7f53f960cc8c5b ""
  "/usr/share/texmf-dist/tex/generic/iftex/iftex.sty" 1591545468 6501 4011d89d9621e0b0901138815ba5ff29 ""
  "/usr/share/texmf-dist/tex/generic/infwarerr/infwarerr.sty" 1591545468 8356 7bbb2c2373aa810be568c29e333da8ed ""
  "/usr/share/texmf-dist/tex/generic/kvdefinekeys/kvdefinekeys.sty" 1591545468 5412 d5a2436094cd7be85769db90f29250a6 ""
  "/usr/share/texmf-dist/tex/generic/kvsetkeys/kvsetkeys.sty" 1591545468 13807 952b0226d4efca026f0e19dd266dcc22 ""
  "/usr/share/texmf-dist/tex/generic/ltxcmds/ltxcmds.sty" 1591545468 18552 1e1cc7b75da0dfaacce7cdcb27d306bf ""
  "/usr/share/texmf-dist/tex/latex/amsmath/amsbsy.sty" 1591545468 2211 ca7ce284ab93c8eecdc6029dc5ccbd73 ""
  "/usr/share/texmf-dist/tex/latex/amsmath/amsgen.sty" 1591545468 4161 7f6eb9092061a11f87d08ed13515b48d ""
  "/usr/share/texmf-dist/tex/latex/amsmath/amsmath.sty" 1591545468 85660 baee036978c7a91f4e2bba43f05e5945 ""
  "/usr/share/texmf-dist/tex/latex/amsmath/amsopn.sty" 1591545468 4116 32e6abd27229755a83a8b7f18e583890 ""
  "/usr/share/texmf-dist/tex/latex/amsmath/amstext.sty" 1591545468 2432 8ff93b1137020e8f21930562a874ae66 ""
  "/usr/share/texmf-dist/tex/latex/base/article.cls" 1591545468 20023 e427dd9e17e239bf926ef3aab67fe35e ""
  "/usr/share/texmf-dist/tex/latex/base/inputenc.sty" 1591545468 5050 8933a39ad74377accd18991c5eb90c58 ""
  "/usr/share/texmf-dist/tex/latex/base/omscmr.fd" 1591545468 2470 59e43b502a8bea3a12f4954945302e40 ""
  "/usr/share/texmf-dist/tex/latex/base/ot4enc.def" 1591545468 4737 67abade8a6d72c5104a99168f35bc1b1 ""
  "/usr/share/texmf-dist/tex/latex/base/size12.clo" 1591545468 8447 5c4b8ee712f8e349df2722115bc8c513 ""
  "/usr/share/texmf-dist/tex/latex/caption/caption.sty" 1591545468 55681 9f734e1815747cb8bb47a735fd4254ad ""
  "/usr/share/texmf-dist/tex/latex/caption/caption3.sty" 1591545468 64207 bba542979d2533f31c75720ba779a52a ""
  "/usr/share/texmf-dist/tex/latex/epstopdf-pkg/epstopdf-base.sty" 1591545468 13886 d1306dcf79a944f6988e688c1785f9ce ""
  "/usr/share/texmf-dist/tex/latex/graphics-cfg/graphics.cfg" 1591545468 1224 978390e9c2234eab29404bc21b268d1e ""
  "/usr/share/texmf-dist/tex/latex/graphics-def/pdftex.def" 1591545468 17448 c8e20d5f7e69b0cbecf82ab29daeebd9 ""
  "/usr/share/texmf-dist/tex/latex/graphics/graphics.sty" 1591545468 16932 04729abe63b66ec59ea56edcd722b058 ""
  "/usr/share/texmf-dist/tex/latex/graphics/graphicx.sty" 1591545468 9067 1b996612394a52e1efe89c8bfe8a5892 ""
  "/usr/share/texmf-dist/tex/latex/graphics/keyval.sty" 1591545468 2590 e3b24ff953e5b58d924f163d25380312 ""
  "/usr/share/texmf-dist/tex/latex/graphics/trig.sty" 1591545468 3976 d7fa7d81d2870d509d25b17d0245e735 ""
  "/usr/share/texmf-dist/tex/latex/grfext/grfext.sty" 1591545468 7133 b94bbacbee6e4fdccdc7f810b2aec370 ""
  "/usr/share/texmf-dist/tex/latex/hyphenat/hyphenat.sty" 1591524854 5798 0437b031e663035b68539cf7ac7c8eeb ""
  "/usr/share/texmf-dist/tex/latex/kvoptions/kvoptions.sty" 1591545468 22520 c4c2dab203104295e1e618be7e5c0f5b ""
  "/usr/share/texmf-dist/tex/latex/l3backend/l3backend-pdfmode.def" 1591545468 25742 5de23a2d2bc67a3139433e702e64a437 ""
  "/usr/share/texmf-dist/tex/latex/l3kernel/expl3.sty" 1591545468 4713 eb01a5180e90c7ac1715bb64e2c31227 ""
  "/usr/share/texmf-dist/tex/latex/l3packages/l3keys2e/l3keys2e.sty" 1591545468 4615 4ac5fc0da0d4c20aef3a345b8be411eb ""
  "/usr/share/texmf-dist/tex/latex/l3packages/xparse/xparse-generic.tex" 1591545468 80141 edbf9289c99ff37db17116af7a3a423f ""
  "/usr/share/texmf-dist/tex/latex/l3packages/xparse/xparse.sty" 1591545468 5914 5eaa255b13fb7a5e47ededc8ec098dba ""
  "/usr/share/texmf-dist/tex/latex/latexconfig/epstopdf-sys.cfg" 1591545468 678 4792914a8f45be57bb98413425e4c7af ""
  "/usr/share/texmf-dist/tex/latex/listings/listings.cfg" 1591545468 1830 e31effa752c61538383451ae21332364 ""
  "/usr/share/texmf-dist/tex/latex/listings/listings.sty" 1591545468 80964 64e57373f36316e4a09b517cbf1aba2e ""
  "/usr/share/texmf-dist/tex/latex/listings/lstlang1.sty" 1591545468 204271 bae5b2d457283e99567249c1990510be ""
  "/usr/share/texmf-dist/tex/latex/listings/lstmisc.sty" 1591545468 77022 ee25ce086f4a79d8cf73bac6f94c02a5 ""
  "/usr/share/texmf-dist/tex/latex/mdwtools/sverb.sty" 1591545468 8811 7b56b869fbbf2ef27ca5eec7539c45a4 ""
  "/usr/share/texmf-dist/tex/latex/pdftexcmds/pdftexcmds.sty" 1591545468 19989 e08c4750d96640367c4b141017eda013 ""
  "/usr/share/texmf-dist/tex/latex/polski/omlplm.fd" 1591545468 1553 7e55eec7e7ffbbc85187034f06b5977a ""
  "/usr/share/texmf-dist/tex/latex/polski/omsplsy.fd" 1591545468 1472 cdbddbc0209f1dca4b38ccca913f65d7 ""
  "/usr/share/texmf-dist/tex/latex/polski/omxplex.fd" 1591545468 1283 a1205ac8611390c6de04f8d76756c3c4 ""
  "/usr/share/texmf-dist/tex/latex/polski/ot4cmr.fd" 1591545468 2599 8c16345f9109faed2ca2ff52e16d8a6f ""
  "/usr/share/texmf-dist/tex/latex/polski/ot4cmss.fd" 1591545468 2247 cb2eacb155763dc8d5c6909460a63fea ""
  "/usr/share/texmf-dist/tex/latex/polski/ot4cmtt.fd" 1591545468 1774 11f597dd001232790274dfe4e868cdbb ""
  "/usr/share/texmf-dist/tex/latex/polski/polski.sty" 1591545468 13310 401406f54546887504ce1857a307089b ""
  "/usr/share/texmf-dist/tex/latex/siunitx/siunitx-abbreviations.cfg" 1591525385 4745 793d4d5a808c37a7085f620706b56fe1 ""
  "/usr/share/texmf-dist/tex/latex/siunitx/siunitx.sty" 1591525385 273434 c3d90844d64bf82fded1b064359b4e14 ""
  "/usr/share/texmf-dist/tex/latex/subfig/subfig.sty" 1591545468 21369 9ef165ca6df8815c92e693146a376c92 ""
  "/usr/share/texmf-dist/tex/latex/titlesec/titleps.sty" 1591524854 25334 691db3cb1d05680310fc5f8752e48c5d ""
  "/usr/share/texmf-dist/tex/latex/titlesec/titlesec.sty" 1591524854 48596 2b6a95da931c07a430b1a61904aaa42d ""
  "/usr/share/texmf-dist/tex/latex/titling/titling.sty" 1591524854 7358 95ac619994bd30d405a74f3eca431c84 ""
  "/usr/share/texmf-dist/tex/latex/tools/array.sty" 1591545468 12560 ce3f59ceae9d9a27bfe037d6bf1d903c ""
  "/usr/share/texmf-dist/tex/latex/tools/multicol.sty" 1591545468 31532 04852e45d7c17cb384689d2f83b628d3 ""
  "/usr/share/texmf-dist/tex/latex/tools/verbatim.sty" 1591545468 7308 a7fb09b68a4a07a482e876fbe2959b04 ""
  "/usr/share/texmf-dist/tex/latex/translator/translator-basic-dictionary-English.dict" 1591545468 3435 0a4d096dde3f8fe682c2aedd33b8137d ""
  "/usr/share/texmf-dist/tex/latex/translator/translator.sty" 1591545468 8691 e154b4b39c7cd1cfa9301a391c44afdd ""
  "/usr/share/texmf-dist/web2c/texmf.cnf" 1591545468 33301 a3134070eacafb10b1f371612ce2650d ""
  "/var/lib/texmf/fonts/map/pdftex/updmap/pdftex.map" 1592495610 4727905 1b81189106e2406a827797a37162c1c0 ""
  "/var/lib/texmf/web2c/pdftex/pdflatex.fmt" 1592495598 2514048 d99c2d0bd1d6f880d4674b713f186e6a ""
  "media/agh.jpg" 1592401832 76770 76f0f52f335369b51f4b43810540c7f7 ""
  "r1.tex" 1593256282 13947 377763bd6780aa6d58defe6340e292be ""
  "spr.aux" 1593256288 9822 08603bf5368079855bf2163b7150cd0e "pdflatex"
  "spr.tex" 1593052517 1552 4e686a4adfbfb5ad98f16fc6554089c1 ""
  (generated)
  "spr.log"
  "spr.pdf"
  "spr.aux"
